<?xml version="1.0" standalone="no"?>
<!DOCTYPE svg PUBLIC "-//W3C//DTD SVG 1.1//EN" "http://www.w3.org/Graphics/SVG/1.1/DTD/svg11.dtd" >
<svg xmlns="http://www.w3.org/2000/svg" xmlns:xlink="http://www.w3.org/1999/xlink" version="1.1">
<metadata></metadata>
<defs>
<font id="arimoregular" horiz-adv-x="1139" >
<font-face units-per-em="2048" ascent="1638" descent="-410" />
<missing-glyph horiz-adv-x="569" />
<glyph horiz-adv-x="0" />
<glyph unicode="&#xd;" horiz-adv-x="2048" />
<glyph unicode=" "  horiz-adv-x="569" />
<glyph unicode="&#x09;" horiz-adv-x="569" />
<glyph unicode="&#xa0;" horiz-adv-x="569" />
<glyph unicode="!" horiz-adv-x="569" d="M185 0v201h194v-201h-194zM187 1409h196l-24 -1012h-148z" />
<glyph unicode="&#x22;" horiz-adv-x="727" d="M87 1409h184l-22 -443h-141zM456 1409h184l-22 -443h-142z" />
<glyph unicode="#" d="M9 408v108h225l78 369h-252v108h274l89 408h110l-88 -408h363l88 408h110l-88 -408h211v-108h-233l-78 -369h260v-108h-283l-88 -408h-110l86 408h-363l-84 -408h-110l84 408h-201zM345 516h362l78 369h-360z" />
<glyph unicode="$" d="M22 379l170 37q25 -119 104.5 -179t221.5 -69v496q-177 44 -244.5 79t-109 80.5t-60 97.5t-18.5 125q0 155 112.5 242.5t319.5 96.5v131h124v-131q187 -9 289 -84.5t144 -235.5l-174 -33q-20 94 -81 146.5t-178 63.5v-445q179 -42 254.5 -77t119.5 -79t67 -104t23 -141 q0 -165 -121 -265t-343 -111v-162h-124v162q-426 18 -496 359zM258 1048q0 -59 25 -100t74.5 -69t160.5 -56v421q-260 -14 -260 -196zM642 167q141 9 216.5 67t75.5 160q0 65 -26 107t-75 69.5t-191 64.5v-468z" />
<glyph unicode="%" horiz-adv-x="1821" d="M73 975q0 223 77 334.5t244 111.5q159 0 236 -112t77 -334q0 -217 -79.5 -334t-237.5 -117t-237.5 116t-79.5 335zM220 975q0 -173 40 -255.5t132 -82.5q87 0 127.5 84t40.5 254q0 176 -38 257t-128 81q-94 0 -134 -79.5t-40 -258.5zM372 0l922 1409h157l-924 -1409h-155 zM1113 434q0 228 76.5 339.5t242.5 111.5q164 0 240 -114.5t76 -336.5q0 -215 -81 -330.5t-239 -115.5q-156 0 -235.5 112.5t-79.5 333.5zM1260 434q0 -171 39.5 -253.5t130.5 -82.5q88 0 129 83.5t41 252.5q0 179 -38.5 259.5t-129.5 80.5t-131.5 -79t-40.5 -261z" />
<glyph unicode="&#x26;" horiz-adv-x="1366" d="M72 371q0 278 343 429q-33 62 -57 147t-24 155q0 150 91.5 232.5t259.5 82.5q151 0 243.5 -76t92.5 -208q0 -118 -91.5 -210t-317.5 -182q111 -205 293 -412q113 166 171 410l145 -43q-63 -249 -212 -469q96 -98 208 -98q71 0 117 16v-135q-56 -22 -141 -22 q-177 0 -298 127q-75 -65 -171 -100t-201 -35q-215 0 -333 103.5t-118 287.5zM240 373q0 -121 77.5 -191.5t211.5 -70.5q71 0 142 27.5t124 78.5q-198 234 -319 457q-236 -100 -236 -301zM487 1102q0 -114 65 -244q131 53 192.5 92t93 84t31.5 99q0 72 -50 117.5t-136 45.5 q-96 0 -146 -51.5t-50 -142.5z" />
<glyph unicode="'" horiz-adv-x="391" d="M104 1409h184l-22 -443h-141z" />
<glyph unicode="(" horiz-adv-x="682" d="M127 528v4q0 289 90.5 519t278.5 433h174q-187 -208 -274.5 -442t-87.5 -512q0 -277 86.5 -510t275.5 -444h-174q-189 204 -279 434.5t-90 517.5z" />
<glyph unicode=")" horiz-adv-x="682" d="M12 -424q188 210 275 442.5t87 511.5t-87.5 512t-274.5 442h174q189 -204 279 -434.5t90 -517.5v-4q0 -289 -90.5 -519t-278.5 -433h-174z" />
<glyph unicode="*" horiz-adv-x="797" d="M33 1085l45 134l267 -107l-12 297h136l-13 -295l264 103l45 -132l-282 -73l185 -250l-119 -72l-150 258l-156 -256l-119 72l189 248z" />
<glyph unicode="+" horiz-adv-x="1196" d="M100 608v146h424v428h147v-428h424v-146h-424v-428h-147v428h-424z" />
<glyph unicode="," horiz-adv-x="569" d="M184 -262q94 136 94 262h-88v219h195v-168q0 -106 -19 -177t-59 -136h-123z" />
<glyph unicode="-" horiz-adv-x="682" d="M91 464v160h500v-160h-500z" />
<glyph unicode="." horiz-adv-x="569" d="M187 0v219h195v-219h-195z" />
<glyph unicode="/" horiz-adv-x="569" d="M0 -20l411 1504h158l-407 -1504h-162z" />
<glyph unicode="0" d="M80 705q0 363 118.5 544t374.5 181q249 0 367.5 -183t118.5 -542q0 -353 -124.5 -539t-367.5 -186t-365 185t-122 540zM262 705q0 -300 73.5 -439t233.5 -139q159 0 233 142t74 436q0 305 -70.5 442t-232.5 137q-166 0 -238.5 -135t-72.5 -444z" />
<glyph unicode="1" d="M156 0v153h359v1084l-318 -227v170l333 229h166v-1256h343v-153h-883z" />
<glyph unicode="2" d="M103 0v127q51 117 124.5 206.5t154.5 162t160.5 134.5t143.5 124t103.5 130t39.5 154q0 116 -68 180t-189 64q-115 0 -189.5 -62.5t-87.5 -175.5l-184 17q20 169 143.5 269t317.5 100q213 0 327.5 -100.5t114.5 -285.5q0 -82 -37.5 -163t-111.5 -162t-283 -251 q-115 -94 -183 -169.5t-98 -145.5h735v-153h-933z" />
<glyph unicode="3" d="M78 362l186 17q36 -250 307 -250q136 0 213.5 67t77.5 199q0 115 -88.5 179.5t-255.5 64.5h-102v156h98q148 0 229.5 64.5t81.5 178.5q0 113 -66.5 178.5t-197.5 65.5q-119 0 -192.5 -61t-85.5 -172l-181 14q20 173 143.5 270t317.5 97q212 0 329.5 -98.5t117.5 -274.5 q0 -135 -75.5 -219.5t-219.5 -114.5v-4q158 -17 246 -106t88 -224q0 -195 -124 -302t-354 -107q-214 0 -341.5 96.5t-151.5 285.5z" />
<glyph unicode="4" d="M47 319v140l645 950h189v-948h198v-142h-198v-319h-170v319h-664zM213 461h498v745q-2 -6 -28 -53t-39 -66l-361 -532l-54 -74z" />
<glyph unicode="5" d="M82 315l182 21q57 -209 293 -209q145 0 227 87.5t82 240.5q0 133 -82.5 215t-222.5 82q-73 0 -136 -23t-126 -78h-176l47 758h801v-153h-637l-27 -447q117 90 291 90q208 0 331.5 -122t123.5 -318q0 -223 -132.5 -351t-367.5 -128q-197 0 -318 86t-153 249z" />
<glyph unicode="6" d="M104 672q0 366 131 562t373 196q319 0 402 -287l-172 -31q-53 172 -232 172q-154 0 -238.5 -143.5t-84.5 -415.5q49 91 138 138.5t204 47.5q195 0 309.5 -122t114.5 -328q0 -223 -121 -352t-334 -129q-238 0 -364 177t-126 515zM301 496q0 -163 80.5 -267t206.5 -104 q130 0 204 87.5t74 240.5t-75 236t-209 83q-126 0 -203.5 -73.5t-77.5 -202.5z" />
<glyph unicode="7" d="M105 1256v153h931v-146q-216 -330 -305 -517t-133.5 -369t-44.5 -377h-188q0 270 114.5 568.5t382.5 687.5h-757z" />
<glyph unicode="8" d="M89 391q0 138 79 232t202 114v4q-115 27 -181.5 117t-66.5 211q0 161 120.5 261t323.5 100q208 0 328.5 -98t120.5 -265q0 -121 -67 -211t-183 -113v-4q135 -22 210 -114.5t75 -231.5q0 -195 -124 -304t-356 -109q-226 0 -353.5 107t-127.5 304zM275 406q0 -291 297 -291 q147 0 219 70.5t72 224.5q0 131 -78 197.5t-219 66.5q-137 0 -214 -71.5t-77 -196.5zM306 1057q0 -121 68.5 -184.5t193.5 -63.5q127 0 193.5 58.5t66.5 189.5q0 239 -262 239q-127 0 -193.5 -60t-66.5 -179z" />
<glyph unicode="9" d="M96 956q0 221 124 347.5t345 126.5q235 0 356 -174t121 -523q0 -363 -132.5 -558t-377.5 -195q-165 0 -264.5 69.5t-142.5 224.5l172 27q54 -176 238 -176q155 0 240 144t89 411q-40 -90 -137 -144.5t-213 -54.5q-190 0 -304 130t-114 345zM279 956q0 -154 75 -243.5 t203 -89.5q78 0 145 35.5t105.5 100.5t38.5 148q0 170 -78 273.5t-209 103.5q-130 0 -205 -88.5t-75 -239.5z" />
<glyph unicode=":" horiz-adv-x="569" d="M187 0v207h195v-207h-195zM187 875v207h195v-207h-195z" />
<glyph unicode="&#x3c;" horiz-adv-x="1196" d="M101 571v205l995 418v-154l-858 -366l858 -367v-153z" />
<glyph unicode="=" horiz-adv-x="1196" d="M100 344v148h995v-148h-995zM100 856v148h995v-148h-995z" />
<glyph unicode="&#x3e;" horiz-adv-x="1196" d="M101 154v153l858 367l-858 366v154l995 -418v-205z" />
<glyph unicode="?" d="M84 1020q26 198 156 304t344 106q223 0 351 -105.5t128 -292.5q0 -75 -22 -134t-63 -109t-134 -118l-80 -59q-72 -52 -107 -109.5t-36 -125.5h-175q2 69 21.5 121t50.5 92t70 71.5t79 60t78.5 57t68.5 63.5t48.5 79t18.5 103q0 114 -77.5 180t-217.5 66t-222 -70 t-96 -192zM438 0v201h195v-201h-195z" />
<glyph unicode="@" horiz-adv-x="2079" d="M161 491q0 280 124.5 509t345.5 356.5t495 127.5q241 0 416 -90.5t267.5 -255.5t92.5 -383q0 -186 -57.5 -336.5t-160 -232.5t-229.5 -82q-99 0 -153 44t-54 132l3 70h-6q-66 -123 -163.5 -184.5t-210.5 -61.5q-157 0 -243.5 102t-86.5 283q0 164 64.5 305t180.5 224 t257 83q219 0 301 -182h6l39 160h156l-116 -506q-37 -164 -37 -253q0 -94 81 -94q80 0 147.5 69t106.5 190t39 268q0 179 -77 317.5t-222 213t-339 74.5q-242 0 -428 -107t-292 -308.5t-106 -451.5q0 -193 78.5 -340.5t227 -226.5t346.5 -79q145 0 294 37.5t309 124.5 l55 -112q-145 -87 -314.5 -132.5t-343.5 -45.5q-241 0 -421.5 95.5t-276 272t-95.5 406.5zM706 491q0 -120 47.5 -188t146.5 -68q125 0 229 105t144 262q23 92 23 145q0 102 -66 164.5t-176 62.5q-101 0 -179.5 -63.5t-123.5 -176t-45 -243.5z" />
<glyph unicode="A" horiz-adv-x="1366" d="M4 0l575 1409h217l566 -1409h-195l-161 412h-642l-162 -412h-198zM422 561h527l-181 465q-28 69 -56 156l-27 83l-9 -28q-25 -83 -74 -213z" />
<glyph unicode="B" horiz-adv-x="1366" d="M168 0v1409h512q496 0 496 -342q0 -125 -70 -210t-198 -114q168 -20 259 -112.5t91 -233.5q0 -188 -137 -292.5t-381 -104.5h-572zM359 153h371q175 0 255 65t80 194q0 249 -350 249h-356v-508zM359 810h321q153 0 228.5 57.5t75.5 176.5q0 114 -78 163t-226 49h-321 v-446z" />
<glyph unicode="C" horiz-adv-x="1479" d="M104 711q0 337 182 528t504 191q225 0 376 -88t222 -261l-181 -60q-49 123 -157.5 188t-257.5 65q-234 0 -364 -150.5t-130 -412.5q0 -259 135.5 -416.5t366.5 -157.5q296 0 445 293l156 -78q-87 -182 -244.5 -277t-365.5 -95q-213 0 -368.5 88.5t-237 253t-81.5 389.5z " />
<glyph unicode="D" horiz-adv-x="1479" d="M168 0v1409h466q358 0 552.5 -179.5t194.5 -510.5q0 -218 -85 -381.5t-241 -250.5t-360 -87h-527zM359 153h314q155 0 272.5 68t180.5 196t63 302q0 262 -143.5 399.5t-415.5 137.5h-271v-1103z" />
<glyph unicode="E" horiz-adv-x="1366" d="M168 0v1409h1069v-156h-878v-452h818v-154h-818v-491h919v-156h-1110z" />
<glyph unicode="F" horiz-adv-x="1251" d="M168 0v1409h1001v-156h-810v-524h786v-158h-786v-571h-191z" />
<glyph unicode="G" horiz-adv-x="1593" d="M103 711q0 343 184 531t517 188q234 0 380 -79t225 -253l-182 -54q-60 120 -165.5 175t-262.5 55q-244 0 -373 -147.5t-129 -415.5q0 -267 137 -421.5t379 -154.5q138 0 257.5 42t193.5 114v254h-421v160h597v-486q-112 -114 -274.5 -176.5t-352.5 -62.5q-221 0 -381 88 t-244.5 253.5t-84.5 389.5z" />
<glyph unicode="H" horiz-adv-x="1479" d="M168 0v1409h191v-596h762v596h191v-1409h-191v653h-762v-653h-191z" />
<glyph unicode="I" horiz-adv-x="569" d="M189 0v1409h191v-1409h-191z" />
<glyph unicode="J" horiz-adv-x="1024" d="M32 350l187 31q18 -116 81 -181t158 -65q104 0 164 71.5t60 209.5v837h-271v156h461v-989q0 -205 -111 -322.5t-304 -117.5q-358 0 -425 370z" />
<glyph unicode="K" horiz-adv-x="1366" d="M168 0v1409h191v-706l679 706h225l-600 -612l680 -797h-237l-563 680l-184 -140v-540h-191z" />
<glyph unicode="L" d="M168 0v1409h191v-1253h712v-156h-903z" />
<glyph unicode="M" horiz-adv-x="1706" d="M168 0v1409h251l375 -977q20 -59 38.5 -126.5t24.5 -97.5q8 40 33.5 121.5t34.5 102.5l368 977h245v-1409h-172v940q0 156 9 300q-49 -179 -88 -280l-364 -960h-134l-369 960l-56 170l-33 110l3 -111l4 -189v-940h-170z" />
<glyph unicode="N" horiz-adv-x="1479" d="M168 0v1409h222l762 -1208q-12 196 -12 284v924h172v-1409h-230l-754 1200l5 -97l5 -167v-936h-170z" />
<glyph unicode="O" horiz-adv-x="1593" d="M97 711q0 338 185 528.5t515 190.5q215 0 373 -85.5t241.5 -248.5t83.5 -385q0 -221 -84.5 -387t-242.5 -255t-373 -89q-217 0 -374.5 88t-240.5 254.5t-83 388.5zM291 711q0 -265 133.5 -420.5t370.5 -155.5q244 0 374.5 150.5t130.5 425.5q0 263 -131.5 413t-371.5 150 q-242 0 -374 -148t-132 -415z" />
<glyph unicode="P" horiz-adv-x="1366" d="M168 0v1409h593q237 0 367 -111t130 -313q0 -200 -130.5 -318t-354.5 -118h-414v-549h-191zM359 700h387q320 0 320 283q0 273 -328 273h-379v-556z" />
<glyph unicode="Q" horiz-adv-x="1593" d="M97 711q0 338 185 528.5t515 190.5q215 0 373 -85.5t241.5 -248.5t83.5 -385q0 -298 -150 -490t-417 -227q41 -126 107.5 -182t168.5 -56q55 0 115 13v-134q-93 -22 -178 -22q-151 0 -248.5 85.5t-159.5 285.5q-198 10 -341.5 100.5t-219 252t-75.5 374.5zM291 711 q0 -265 133.5 -420.5t370.5 -155.5q244 0 374.5 150.5t130.5 425.5q0 263 -131.5 413t-371.5 150q-242 0 -374 -148t-132 -415z" />
<glyph unicode="R" horiz-adv-x="1479" d="M168 0v1409h663q238 0 367.5 -106.5t129.5 -296.5q0 -157 -91.5 -264t-252.5 -135l400 -607h-220l-366 585h-439v-585h-191zM359 736h461q151 0 233.5 70.5t82.5 197.5q0 123 -83.5 187.5t-240.5 64.5h-453v-520z" />
<glyph unicode="S" horiz-adv-x="1366" d="M93 338l185 37q32 -127 136 -186.5t283 -59.5q185 0 285.5 63.5t100.5 186.5q0 69 -31.5 112t-88.5 71t-136 47t-175 41q-167 37 -253.5 74t-136.5 82.5t-76.5 106.5t-26.5 140q0 181 138.5 279t396.5 98q240 0 367 -73.5t178 -250.5l-188 -33q-31 112 -118 162.5 t-241 50.5q-169 0 -258 -56t-89 -167q0 -65 34.5 -107.5t99.5 -72t259 -72.5q65 -15 129.5 -30.5t123.5 -37t110.5 -50.5t89.5 -71t59.5 -99t21.5 -134q0 -195 -152.5 -302t-429.5 -107q-515 0 -597 358z" />
<glyph unicode="T" horiz-adv-x="1251" d="M46 1253v156h1158v-156h-484v-1253h-190v1253h-484z" />
<glyph unicode="U" horiz-adv-x="1479" d="M158 512v897h191v-881q0 -193 98 -293t283 -100q190 0 295.5 103.5t105.5 302.5v868h190v-879q0 -171 -72.5 -295t-205 -189.5t-312.5 -65.5q-173 0 -302 63t-200 183t-71 286z" />
<glyph unicode="V" horiz-adv-x="1366" d="M9 1409h201l390 -992l84 -249l84 249l388 992h201l-575 -1409h-198z" />
<glyph unicode="W" horiz-adv-x="1933" d="M9 1409h199l253 -895q45 -168 83 -346q24 110 55.5 240t277.5 1001h183l245 -877q56 -215 88 -364l9 35q27 115 44 187.5t281 1018.5h199l-415 -1409h-228l-244 895q-24 84 -70 301q-26 -116 -44 -194t-273 -1002h-228z" />
<glyph unicode="X" horiz-adv-x="1366" d="M46 0l536 732l-495 677h211l392 -553l381 553h211l-482 -670l523 -739h-211l-423 616l-432 -616h-211z" />
<glyph unicode="Y" horiz-adv-x="1366" d="M45 1409h210l429 -671l427 671h210l-544 -825v-584h-190v584z" />
<glyph unicode="Z" horiz-adv-x="1251" d="M65 0v143l858 1110h-785v156h1002v-139l-858 -1114h905v-156h-1122z" />
<glyph unicode="[" horiz-adv-x="569" d="M146 -425v1909h407v-129h-233v-1651h233v-129h-407z" />
<glyph unicode="\" horiz-adv-x="569" d="M0 1484h158l411 -1504h-162z" />
<glyph unicode="]" horiz-adv-x="569" d="M16 -296h233v1651h-233v129h407v-1909h-407v129z" />
<glyph unicode="^" horiz-adv-x="961" d="M10 673l368 736h203l370 -736h-164l-309 633l-306 -633h-162z" />
<glyph unicode="_" d="M-31 -277h1193v-130h-1193v130z" />
<glyph unicode="`" horiz-adv-x="682" d="M106 1479v29h207l217 -287v-20h-94z" />
<glyph unicode="a" d="M87 302q0 168 110.5 258t356.5 96l243 4v59q0 132 -56 189t-176 57q-121 0 -176 -41t-66 -131l-188 17q46 292 434 292q204 0 307 -93.5t103 -270.5v-466q0 -80 21 -120.5t80 -40.5q26 0 59 7v-112q-68 -16 -139 -16q-100 0 -145.5 52.5t-51.5 164.5h-6 q-69 -124 -160.5 -175.5t-222.5 -51.5q-163 0 -245 86t-82 236zM272 299q0 -88 47.5 -136t135.5 -48q99 0 176 45t121.5 123.5t44.5 161.5v89l-197 -4q-127 -2 -192.5 -26t-100.5 -74t-35 -131z" />
<glyph unicode="b" d="M132 0q6 54 6 223v1261h180v-423q0 -65 -4 -153h4q50 104 132.5 149t204.5 45q205 0 301.5 -138t96.5 -418q0 -566 -398 -566q-123 0 -204.5 44.5t-132.5 143.5h-2q0 -31 -4 -94.5t-6 -73.5h-174zM318 529q0 -213 68 -314.5t221 -101.5q136 0 196.5 100.5t60.5 326.5 q0 227 -60 325t-195 98q-152 0 -221.5 -104t-69.5 -330z" />
<glyph unicode="c" horiz-adv-x="1024" d="M87 542q0 273 120 416.5t344 143.5q166 0 275.5 -86t137.5 -237l-185 -14q-14 90 -71 143t-162 53q-143 0 -207 -95t-64 -320q0 -216 68 -320t205 -104q96 0 160.5 52t79.5 160l182 -12q-21 -156 -133 -249t-284 -93q-227 0 -346.5 143.5t-119.5 418.5z" />
<glyph unicode="d" d="M86 536q0 566 398 566q123 0 205 -45t132 -143h2l-2 121v449h180v-1261q0 -169 6 -223h-172q-3 16 -6.5 74t-3.5 100h-4q-50 -104 -132.5 -149t-204.5 -45q-205 0 -301.5 138t-96.5 418zM275 542q0 -227 60 -325t195 -98q153 0 222 106t69 329q0 215 -69 315t-220 100 q-136 0 -196.5 -100.5t-60.5 -326.5z" />
<glyph unicode="e" d="M87 548q0 268 125.5 411t358.5 143q477 0 477 -575v-24h-772q0 -186 77 -287t225 -101q117 0 187.5 47t95.5 119l158 -45q-97 -256 -441 -256q-240 0 -365.5 143t-125.5 425zM278 641h584q-15 171 -87 249.5t-207 78.5q-131 0 -207.5 -87.5t-82.5 -240.5z" />
<glyph unicode="f" horiz-adv-x="569" d="M29 951v131h152v122q0 148 65 213t199 65q75 0 127 -12v-137q-45 8 -80 8q-69 0 -100 -35t-31 -127v-97h211v-131h-211v-951h-180v951h-152z" />
<glyph unicode="g" d="M86 539q0 287 100.5 423.5t305.5 136.5q115 0 199.5 -52.5t130.5 -149.5h2q0 30 4 104t8 81h171q-6 -54 -6 -224v-827q0 -456 -453 -456q-177 0 -282 69.5t-135 197.5l181 26q18 -75 79.5 -115.5t161.5 -40.5q269 0 269 315v174h-2q-51 -104 -140 -156.5t-208 -52.5 q-199 0 -292.5 132t-93.5 415zM272 541q0 -222 59 -319t202 -97q85 0 151 50t102 143.5t36 222.5q0 132 -36 227.5t-101.5 146t-148.5 50.5q-138 0 -201 -100t-63 -324z" />
<glyph unicode="h" d="M142 0v1484h180v-386q0 -61 -3.5 -126t-4.5 -75h3q58 106 139.5 155.5t206.5 49.5q176 0 259.5 -87.5t83.5 -293.5v-721h-181v686q0 114 -21 169.5t-69 81.5t-133 26q-127 0 -203.5 -88t-76.5 -237v-638h-180z" />
<glyph unicode="i" horiz-adv-x="455" d="M137 0v1082h180v-1082h-180zM137 1312v172h180v-172h-180z" />
<glyph unicode="j" horiz-adv-x="455" d="M-50 -277l62 -6q69 0 97 36t28 140v1189h180v-1216q0 -153 -60 -222t-180 -69q-77 0 -127 9v139zM137 1312v172h180v-172h-180z" />
<glyph unicode="k" horiz-adv-x="1024" d="M138 0v1484h180v-927l475 525h211l-439 -465l462 -617h-211l-366 494l-132 -109v-385h-180z" />
<glyph unicode="l" horiz-adv-x="455" d="M138 0v1484h180v-1484h-180z" />
<glyph unicode="m" horiz-adv-x="1706" d="M136 1082h170q1 -5 2 -27t2.5 -50.5t3.5 -107.5h3q58 115 133 160t183 45q123 0 194.5 -49t99.5 -156h3q56 109 135.5 157t192.5 48q164 0 238.5 -89t74.5 -292v-721h-178v686q0 157 -43 217t-155 60q-118 0 -183.5 -87.5t-65.5 -248.5v-627h-178v686q0 157 -43 217 t-155 60q-115 0 -182 -88t-67 -248v-627h-179v851q0 189 -6 231z" />
<glyph unicode="n" d="M136 1082h170q1 -5 2 -27t2.5 -50.5t3.5 -107.5h3q62 112 143.5 158.5t202.5 46.5q178 0 260.5 -88.5t82.5 -292.5v-721h-181v686q0 107 -21 166t-67 85t-135 26q-130 0 -205 -89t-75 -247v-627h-180v851q0 189 -6 231z" />
<glyph unicode="o" d="M86 542q0 560 485 560q248 0 365 -136.5t117 -423.5q0 -284 -125 -423t-363 -139q-237 0 -358 144.5t-121 417.5zM275 542q0 -214 69.5 -321.5t218.5 -107.5q162 0 231.5 104t69.5 325q0 224 -66.5 325.5t-223.5 101.5q-158 0 -228.5 -103.5t-70.5 -323.5z" />
<glyph unicode="p" d="M132 1082h174q1 -4 3 -28.5t4.5 -75.5t2.5 -70h4q48 100 127 146.5t208 46.5q200 0 299 -134t99 -421q0 -566 -398 -566q-250 0 -336 188h-5q4 -8 4 -170v-423h-180v1286q0 167 -6 221zM318 528q0 -213 68 -314t221 -101q134 0 195.5 98.5t61.5 330.5q0 226 -61 323 t-194 97q-107 0 -167.5 -45t-92 -140.5t-31.5 -248.5z" />
<glyph unicode="q" d="M86 536q0 566 398 566q123 0 203 -43.5t134 -144.5h2q0 30 4 103.5t8 78.5h173q-7 -59 -7 -295v-1226h-180v439l4 164h-2q-54 -107 -133 -152.5t-206 -45.5q-206 0 -302 139t-96 417zM275 542q0 -227 60.5 -325t194.5 -98q153 0 222 109t69 326q0 211 -69 313t-220 102 q-137 0 -197 -102t-60 -325z" />
<glyph unicode="r" horiz-adv-x="682" d="M136 1082h170q8 -184 8 -221h4q43 139 99 190t158 51q36 0 73 -10v-165q-36 10 -96 10q-112 0 -171 -96.5t-59 -276.5v-564h-180v830q0 114 -6 252z" />
<glyph unicode="s" horiz-adv-x="1024" d="M57 254l159 31q23 -87 95 -127.5t200 -40.5q137 0 200.5 42t63.5 126q0 64 -44 104t-142 66l-129 34q-155 40 -220.5 78.5t-102.5 93.5t-37 135q0 148 105.5 225.5t307.5 77.5q179 0 284.5 -63t133.5 -202l-162 -20q-15 72 -80.5 110.5t-175.5 38.5q-122 0 -180 -37 t-58 -112q0 -46 24 -76t71 -51t198 -58q143 -36 206 -66.5t99.5 -67.5t56.5 -85.5t20 -110.5q0 -153 -115.5 -236t-323.5 -83q-202 0 -311.5 66.5t-142.5 207.5z" />
<glyph unicode="t" horiz-adv-x="569" d="M31 951v131h132l53 242h120v-242h200v-131h-200v-683q0 -78 25.5 -109.5t88.5 -31.5q36 0 104 14v-133q-89 -24 -182 -24q-216 0 -216 245v722h-125z" />
<glyph unicode="u" d="M133 361v721h181v-686q0 -107 21 -166t67 -85t135 -26q130 0 205 89t75 247v627h180v-851q0 -189 6 -231h-170q-1 5 -2 27t-2.5 50.5t-3.5 107.5h-3q-62 -112 -143.5 -158.5t-202.5 -46.5q-178 0 -260.5 88.5t-82.5 292.5z" />
<glyph unicode="v" horiz-adv-x="1024" d="M7 1082h192l238 -704q13 -40 69 -237l35 117l39 118l246 706h191l-404 -1082h-213z" />
<glyph unicode="w" horiz-adv-x="1479" d="M-3 1082h178l183 -735q7 -24 43 -198l17 74l226 859h193l189 -743l46 -190l31 139l205 794h176l-310 -1082h-209l-189 765l-36 169q-9 -45 -28 -129.5t-204 -804.5h-208z" />
<glyph unicode="x" horiz-adv-x="1024" d="M23 0l385 556l-367 526h199l270 -421l268 421h201l-367 -524l390 -558h-201l-291 444l-293 -444h-194z" />
<glyph unicode="y" horiz-adv-x="1024" d="M5 1082h192l228 -598q5 -14 12 -33.5t45 -130.5t41 -124l70 197l237 689h190l-416 -1082q-67 -173 -125 -257.5t-128.5 -126t-159.5 -41.5q-74 0 -124 11v135q38 -6 84 -6q168 0 266 247l17 43z" />
<glyph unicode="z" horiz-adv-x="1024" d="M83 0v137l605 806h-571v139h784v-137l-606 -806h627v-139h-839z" />
<glyph unicode="{" horiz-adv-x="684" d="M34 466v127q109 4 162 61.5t53 174.5v362q0 141 66.5 217t197.5 76h135v-129h-63q-91 0 -129.5 -53.5t-38.5 -161.5v-356q0 -94 -53 -162.5t-141 -89.5v-2q89 -21 141.5 -89t52.5 -165v-357q0 -106 38.5 -160.5t129.5 -54.5h63v-129h-135q-127 0 -195.5 77t-68.5 216v361 q0 117 -52.5 174.5t-162.5 62.5z" />
<glyph unicode="|" horiz-adv-x="532" d="M183 -434v1918h166v-1918h-166z" />
<glyph unicode="}" horiz-adv-x="684" d="M34 -296h60q91 0 130.5 54.5t39.5 160.5v357q0 98 52 166t141 88v2q-86 20 -139.5 87.5t-53.5 164.5v356q0 108 -39.5 161.5t-130.5 53.5h-60v129h132q131 0 197.5 -76t66.5 -217v-362q0 -116 53 -174t164 -62v-127q-112 -4 -164.5 -62t-52.5 -175v-361 q0 -138 -68.5 -215.5t-195.5 -77.5h-132v129z" />
<glyph unicode="~" horiz-adv-x="1196" d="M92 580v143q111 84 263 84q52 0 115.5 -13t193.5 -59q31 -12 91 -28.5t105 -16.5q130 0 244 92v-149q-58 -42 -116.5 -61t-143.5 -19q-69 0 -141.5 22t-145.5 48q-129 45 -217 45q-67 0 -125 -20.5t-123 -67.5z" />
<glyph unicode="&#xa1;" horiz-adv-x="682" d="M242 -327l24 1012h148l24 -1012h-196zM246 881v201h194v-201h-194z" />
<glyph unicode="&#xa2;" d="M135 697q0 253 102 396.5t301 160.5v155h124v-155q143 -15 233 -98t117 -222l-185 -14q-14 90 -71 143t-162 53q-143 0 -207 -95t-64 -320q0 -216 68 -320t205 -104q96 0 160.5 52t79.5 160l182 -12q-19 -144 -114 -235t-242 -105v-168h-124v168q-199 18 -301 160.5 t-102 399.5z" />
<glyph unicode="&#xa3;" d="M58 625v129h186v280q0 195 103 295.5t299 100.5q147 0 247 -60.5t134 -169.5l-174 -57q-21 64 -76.5 101.5t-126.5 37.5q-114 0 -170 -57.5t-56 -182.5v-288h408v-129h-408v-126q0 -119 -46 -212t-123 -134h483q174 0 203 176l163 -18q-17 -150 -105 -230.5t-232 -80.5 h-698v154q89 46 132 126t43 201v144h-186z" />
<glyph unicode="&#xa4;" d="M113 330l102 102q-78 114 -78 252t78 252l-100 100l104 103l99 -101q114 82 254 82q137 0 251 -80l97 97l104 -105l-96 -96q80 -117 80 -252q0 -138 -82 -252l100 -100l-102 -105l-101 101q-114 -78 -251 -78q-143 0 -252 80l-105 -105zM291 686q0 -117 83 -198.5 t198 -81.5q114 0 197 81t83 199q0 117 -83.5 199t-196.5 82t-197 -81.5t-84 -199.5z" />
<glyph unicode="&#xa5;" d="M-2 1409h199l371 -647l375 647h199l-422 -700h321v-125h-383v-154h383v-127h-383v-303h-178v303h-381v127h381l2 154h-383v125h320z" />
<glyph unicode="&#xa6;" horiz-adv-x="532" d="M183 345h166v-779h-166v779zM183 706v778h166v-778h-166z" />
<glyph unicode="&#xa7;" d="M115 100l161 31q20 -90 88 -131t213 -41q136 0 208.5 44t72.5 126q0 57 -33 95.5t-94.5 67.5t-212.5 66q-194 45 -279.5 123t-85.5 190q0 89 61.5 163t166.5 104q-96 32 -151.5 99t-55.5 153q0 139 105.5 216.5t308.5 77.5q173 0 279.5 -66.5t133.5 -193.5l-161 -20 q-27 150 -252 150q-125 0 -189.5 -39.5t-64.5 -110.5q0 -48 30 -83t85.5 -61t185.5 -57q147 -35 225 -76.5t121 -100.5t43 -140q0 -99 -59.5 -174t-159.5 -99q112 -48 162.5 -112.5t50.5 -155.5q0 -148 -115.5 -232.5t-325.5 -84.5q-209 0 -318.5 66.5t-143.5 205.5z M313 684q0 -49 29.5 -85.5t85 -63.5t184.5 -60q119 2 186.5 52.5t67.5 135.5q0 72 -69.5 124t-245.5 93q-109 -6 -173.5 -59t-64.5 -137z" />
<glyph unicode="&#xa8;" horiz-adv-x="682" d="M45 1219v184h165v-184h-165zM439 1219v184h163v-184h-163z" />
<glyph unicode="&#xa9;" horiz-adv-x="1509" d="M31 707q0 193 97 361t265 265t361 97q194 0 362.5 -97.5t264.5 -264.5t96 -361q0 -193 -96.5 -361.5t-265 -265t-361.5 -96.5q-197 0 -366.5 100.5t-263 267t-93.5 355.5zM126 707q0 -169 84.5 -315t229.5 -230t314 -84t316 84t231 230t84 315t-84 313.5t-230.5 229.5 t-316.5 85q-168 0 -314 -84.5t-230 -230.5t-84 -313zM369 709q0 203 100 313.5t289 110.5q244 0 340 -209l-114 -33q-32 69 -90 103t-134 34q-127 0 -194.5 -80.5t-67.5 -238.5q0 -155 71 -240.5t196 -85.5q158 0 233 156l115 -35q-62 -121 -146.5 -173t-201.5 -52 q-188 0 -292 113t-104 317z" />
<glyph unicode="&#xaa;" horiz-adv-x="758" d="M26 870q0 116 78.5 178t233.5 64l178 4v60q0 81 -35 118t-116 37q-67 0 -107.5 -29.5t-49.5 -105.5l-149 10q16 106 95.5 166t208.5 60q145 0 220.5 -62.5t75.5 -187.5v-308q0 -58 14 -83t49 -25q19 0 43 8v-104q-49 -13 -83 -13q-73 0 -113.5 38t-44.5 103h-4 q-73 -147 -260 -147q-108 0 -171 58t-63 161zM176 883q0 -121 123 -121q90 0 153.5 59t63.5 138v65l-138 -4q-118 -6 -160 -39t-42 -98z" />
<glyph unicode="&#xab;" d="M83 506v63l336 371h167v-31l-335 -372l337 -367v-29h-169zM548 506v63l338 371h168v-31l-338 -372l340 -367v-29h-170z" />
<glyph unicode="&#xac;" horiz-adv-x="1196" d="M100 608v146h995v-574h-145v428h-850z" />
<glyph unicode="&#xad;" horiz-adv-x="682" d="M91 464v160h500v-160h-500z" />
<glyph unicode="&#xae;" horiz-adv-x="1509" d="M31 707q0 193 97 361t265 265t361 97q194 0 362.5 -97.5t264.5 -264.5t96 -361q0 -193 -96.5 -361.5t-265 -265t-361.5 -96.5q-197 0 -366.5 100.5t-263 267t-93.5 355.5zM126 707q0 -169 84.5 -315t229.5 -230t314 -84t316 84t231 230t84 315t-84 313.5t-230.5 229.5 t-316.5 85q-168 0 -314 -84.5t-230 -230.5t-84 -313zM468 289v831h307q142 0 217.5 -63t75.5 -174q0 -102 -52 -163.5t-137 -80.5l221 -350h-145l-199 336h-161v-336h-127zM595 721h182q80 0 122 42.5t42 117.5q0 69 -47.5 105t-128.5 36h-170v-301z" />
<glyph unicode="&#xaf;" horiz-adv-x="1131" d="M-17 1452v94h1165v-94h-1165z" />
<glyph unicode="&#xb0;" horiz-adv-x="819" d="M122 1145q0 117 83.5 201t203.5 84t203.5 -83t83.5 -202t-84.5 -202t-202.5 -83t-202.5 84t-84.5 201zM231 1145q0 -74 52.5 -127t125.5 -53q74 0 126 52.5t52 127.5q0 76 -51.5 128t-126.5 52t-126.5 -53t-51.5 -127z" />
<glyph unicode="&#xb1;" horiz-adv-x="1124" d="M65 0v145h995v-145h-995zM65 680v145h424v394h147v-394h424v-145h-424v-395h-147v395h-424z" />
<glyph unicode="&#xb2;" horiz-adv-x="682" d="M41 666q31 69 95.5 134.5t171.5 139.5q97 68 141 124t44 114q0 62 -35.5 99.5t-109.5 37.5q-68 0 -112 -36.5t-52 -104.5l-133 8q13 107 93.5 173t209.5 66q127 0 201.5 -61.5t74.5 -171.5q0 -147 -188 -285q-122 -90 -172 -136t-70 -91h443v-113h-600z" />
<glyph unicode="&#xb3;" horiz-adv-x="682" d="M27 778l136 13q18 -136 182 -136q160 0 160 148q0 137 -189 137h-61v109h57q80 0 126 36t46 101q0 60 -37 94.5t-108 34.5q-68 0 -110 -35t-48 -100l-135 12q13 109 91.5 169t205.5 60q130 0 204 -59.5t74 -157.5q0 -75 -43 -130t-133 -75v-2q91 -9 144 -61.5t53 -140.5 q0 -116 -77.5 -180t-219.5 -64q-286 0 -318 227z" />
<glyph unicode="&#xb4;" horiz-adv-x="682" d="M72 1201v20l217 287h207v-29l-330 -278h-94z" />
<glyph unicode="&#xb5;" horiz-adv-x="1180" d="M140 -425v1507h181v-686q0 -138 53.5 -207.5t172.5 -69.5q128 0 201 87t73 249v627h180v-816q0 -76 18 -110.5t60 -34.5q25 0 54 8v-129q-65 -20 -113 -20q-91 0 -138.5 47t-52.5 147h-3q-106 -194 -299 -194q-67 0 -121.5 20.5t-85.5 58.5v-484h-180z" />
<glyph unicode="&#xb6;" horiz-adv-x="1100" d="M80 1049q0 169 98.5 264.5t271.5 95.5h563v-102h-129v-1571h-112v1571h-217v-1571h-113v958q-168 0 -265 92.5t-97 262.5z" />
<glyph unicode="&#xb7;" horiz-adv-x="682" d="M243 446v220h195v-220h-195z" />
<glyph unicode="&#xb8;" horiz-adv-x="682" d="M119 -332q49 -6 86 -6q147 0 147 81q0 77 -133 77q-43 0 -57 -2l65 182h107l-39 -100q94 -3 141 -43.5t47 -109.5q0 -181 -274 -181q-57 0 -90 4v98z" />
<glyph unicode="&#xb9;" horiz-adv-x="682" d="M80 563v107h211v620l-202 -138v120l210 137h123v-739h215v-107h-557z" />
<glyph unicode="&#xba;" horiz-adv-x="748" d="M27 1042q0 189 89 289.5t260 100.5q347 0 347 -390q0 -188 -88 -289.5t-263 -101.5q-168 0 -256.5 100.5t-88.5 290.5zM179 1042q0 -145 45.5 -215.5t146.5 -70.5q111 0 157 69t46 217q0 154 -45.5 219.5t-149.5 65.5q-108 0 -154 -67.5t-46 -217.5z" />
<glyph unicode="&#xbb;" d="M83 141v29l338 367l-336 372v31h168l335 -371v-63l-335 -365h-170zM550 141v29l338 367l-336 372v31h166l338 -371v-63l-338 -365h-168z" />
<glyph unicode="&#xbc;" horiz-adv-x="1708" d="M56 563v107h211v620l-202 -138v120l210 137h123v-739h215v-107h-557zM345 0l881 1409h145l-878 -1409h-148zM966 180v111l386 557h151v-555h111v-113h-111v-178h-131v178h-406zM1093 293h279v360l2 62q-21 -40 -82 -135z" />
<glyph unicode="&#xbd;" horiz-adv-x="1708" d="M56 563v107h211v620l-202 -138v120l210 137h123v-739h215v-107h-557zM345 0l881 1409h145l-878 -1409h-148zM1051 105q31 69 95.5 134.5t171.5 139.5q97 68 141 124t44 114q0 62 -35.5 99.5t-109.5 37.5q-68 0 -112 -36.5t-52 -104.5l-133 8q13 107 93.5 173t209.5 66 q127 0 201.5 -61.5t74.5 -171.5q0 -147 -188 -285q-122 -90 -172 -136t-70 -91h443v-113h-600z" />
<glyph unicode="&#xbe;" horiz-adv-x="1708" d="M73 778l136 13q18 -136 182 -136q160 0 160 148q0 137 -189 137h-61v109h57q80 0 126 36t46 101q0 60 -37 94.5t-108 34.5q-68 0 -110 -35t-48 -100l-135 12q13 109 91.5 169t205.5 60q130 0 204 -59.5t74 -157.5q0 -75 -43 -130t-133 -75v-2q91 -9 144 -61.5t53 -140.5 q0 -116 -77.5 -180t-219.5 -64q-286 0 -318 227zM365 0l881 1409h145l-878 -1409h-148zM966 180v111l386 557h151v-555h111v-113h-111v-178h-131v178h-406zM1093 293h279v360l2 62q-21 -40 -82 -135z" />
<glyph unicode="&#xbf;" horiz-adv-x="1251" d="M131 50q0 75 22 134t63 109t134 118l81 59q71 52 106 109.5t36 125.5h175q-2 -69 -21.5 -121t-50.5 -92t-70 -71.5t-79 -60t-78.5 -57t-68.5 -63.5t-48.5 -79t-18.5 -103q0 -114 77.5 -180t217.5 -66t222 70t96 192l184 -12q-26 -198 -156 -304t-344 -106 q-223 0 -351 105.5t-128 292.5zM561 881v201h195v-201h-195z" />
<glyph unicode="&#xc0;" horiz-adv-x="1366" d="M4 0l575 1409h217l566 -1409h-195l-161 412h-642l-162 -412h-198zM422 561h527l-181 465q-28 69 -56 156l-27 83l-9 -28q-25 -83 -74 -213zM440 1747v29h207l217 -226v-20h-114z" />
<glyph unicode="&#xc1;" horiz-adv-x="1366" d="M4 0l575 1409h217l566 -1409h-195l-161 412h-642l-162 -412h-198zM422 561h527l-181 465q-28 69 -56 156l-27 83l-9 -28q-25 -83 -74 -213zM547 1530v20l217 226h207v-29l-310 -217h-114z" />
<glyph unicode="&#xc2;" horiz-adv-x="1366" d="M4 0l575 1409h217l566 -1409h-195l-161 412h-642l-162 -412h-198zM352 1530v20l234 240h204l224 -240v-20h-105l-219 139h-2l-232 -139h-104zM422 561h527l-181 465q-28 69 -56 156l-27 83l-9 -28q-25 -83 -74 -213z" />
<glyph unicode="&#xc3;" horiz-adv-x="1366" d="M4 0l575 1409h217l566 -1409h-195l-161 412h-642l-162 -412h-198zM327 1530q11 102 35 154.5t64.5 83t103.5 30.5q44 0 86 -18.5t81 -41t73.5 -41t64.5 -18.5q100 0 117 119h92q-17 -148 -67 -208t-135 -60q-42 0 -84 18.5t-81 41t-74.5 41t-66.5 18.5q-55 0 -82 -31 t-36 -88h-91zM422 561h527l-181 465q-28 69 -56 156l-27 83l-9 -28q-25 -83 -74 -213z" />
<glyph unicode="&#xc4;" horiz-adv-x="1366" d="M4 0l575 1409h217l566 -1409h-195l-161 412h-642l-162 -412h-198zM409 1530v184h165v-184h-165zM422 561h527l-181 465q-28 69 -56 156l-27 83l-9 -28q-25 -83 -74 -213zM803 1530v184h163v-184h-163z" />
<glyph unicode="&#xc5;" horiz-adv-x="1366" d="M4 0l575 1409h217l566 -1409h-195l-161 412h-642l-162 -412h-198zM422 561h527l-181 465q-28 69 -56 156l-27 83l-9 -28q-25 -83 -74 -213zM444 1546q0 101 71 171t171 70q99 0 170.5 -70.5t71.5 -170.5t-71 -171t-171 -71t-171 71t-71 171zM551 1546q0 -55 38 -96 t97 -41q58 0 96 40.5t38 96.5t-39 95t-95 39q-57 0 -96 -39t-39 -95z" />
<glyph unicode="&#xc6;" horiz-adv-x="2048" d="M24 0l686 1409h1209v-156h-759v-452h699v-154h-699v-491h800v-156h-991v412h-548l-198 -412h-199zM491 561h478v701h-151l-28 -63z" />
<glyph unicode="&#xc7;" horiz-adv-x="1479" d="M104 711q0 337 182 528t504 191q225 0 376 -88t222 -261l-181 -60q-49 123 -157.5 188t-257.5 65q-234 0 -364 -150.5t-130 -412.5q0 -259 135.5 -416.5t366.5 -157.5q296 0 445 293l156 -78q-87 -182 -244.5 -277t-365.5 -95q-213 0 -368.5 88.5t-237 253t-81.5 389.5z M629 -332q49 -6 86 -6q147 0 147 81q0 77 -133 77q-43 0 -57 -2l65 182h107l-39 -100q94 -3 141 -43.5t47 -109.5q0 -181 -274 -181q-57 0 -90 4v98z" />
<glyph unicode="&#xc8;" horiz-adv-x="1366" d="M168 0v1409h1069v-156h-878v-452h818v-154h-818v-491h919v-156h-1110zM425 1747v29h207l217 -226v-20h-114z" />
<glyph unicode="&#xc9;" horiz-adv-x="1366" d="M168 0v1409h1069v-156h-878v-452h818v-154h-818v-491h919v-156h-1110zM551 1530v20l217 226h207v-29l-310 -217h-114z" />
<glyph unicode="&#xca;" horiz-adv-x="1366" d="M168 0v1409h1069v-156h-878v-452h818v-154h-818v-491h919v-156h-1110zM375 1530v20l234 240h204l224 -240v-20h-105l-219 139h-2l-232 -139h-104z" />
<glyph unicode="&#xcb;" horiz-adv-x="1366" d="M168 0v1409h1069v-156h-878v-452h818v-154h-818v-491h919v-156h-1110zM422 1530v184h165v-184h-165zM816 1530v184h163v-184h-163z" />
<glyph unicode="&#xcc;" horiz-adv-x="569" d="M9 1747v29h207l217 -226v-20h-114zM189 0v1409h191v-1409h-191z" />
<glyph unicode="&#xcd;" horiz-adv-x="569" d="M142 1530v20l217 226h207v-29l-310 -217h-114zM189 0v1409h191v-1409h-191z" />
<glyph unicode="&#xce;" horiz-adv-x="569" d="M-46 1530v20l234 240h204l224 -240v-20h-105l-219 139h-2l-232 -139h-104zM189 0v1409h191v-1409h-191z" />
<glyph unicode="&#xcf;" horiz-adv-x="569" d="M7 1530v184h165v-184h-165zM189 0v1409h191v-1409h-191zM401 1530v184h163v-184h-163z" />
<glyph unicode="&#xd0;" horiz-adv-x="1479" d="M14 647v154h154v608h466q358 0 552.5 -179.5t194.5 -510.5q0 -218 -85 -381.5t-241 -250.5t-360 -87h-527v647h-154zM359 153h314q155 0 272.5 68t180.5 196t63 302q0 262 -143.5 399.5t-415.5 137.5h-271v-455h406v-154h-406v-494z" />
<glyph unicode="&#xd1;" horiz-adv-x="1479" d="M168 0v1409h222l762 -1208q-12 196 -12 284v924h172v-1409h-230l-754 1200l5 -97l5 -167v-936h-170zM394 1530q11 102 35 154.5t64.5 83t103.5 30.5q44 0 86 -18.5t81 -41t73.5 -41t64.5 -18.5q100 0 117 119h92q-17 -148 -67 -208t-135 -60q-42 0 -84 18.5t-81 41 t-74.5 41t-66.5 18.5q-55 0 -82 -31t-36 -88h-91z" />
<glyph unicode="&#xd2;" horiz-adv-x="1593" d="M97 711q0 338 185 528.5t515 190.5q215 0 373 -85.5t241.5 -248.5t83.5 -385q0 -221 -84.5 -387t-242.5 -255t-373 -89q-217 0 -374.5 88t-240.5 254.5t-83 388.5zM291 711q0 -265 133.5 -420.5t370.5 -155.5q244 0 374.5 150.5t130.5 425.5q0 263 -131.5 413t-371.5 150 q-242 0 -374 -148t-132 -415zM544 1747v29h207l217 -226v-20h-114z" />
<glyph unicode="&#xd3;" horiz-adv-x="1593" d="M97 711q0 338 185 528.5t515 190.5q215 0 373 -85.5t241.5 -248.5t83.5 -385q0 -221 -84.5 -387t-242.5 -255t-373 -89q-217 0 -374.5 88t-240.5 254.5t-83 388.5zM291 711q0 -265 133.5 -420.5t370.5 -155.5q244 0 374.5 150.5t130.5 425.5q0 263 -131.5 413t-371.5 150 q-242 0 -374 -148t-132 -415zM621 1530v20l217 226h207v-29l-310 -217h-114z" />
<glyph unicode="&#xd4;" horiz-adv-x="1593" d="M97 711q0 338 185 528.5t515 190.5q215 0 373 -85.5t241.5 -248.5t83.5 -385q0 -221 -84.5 -387t-242.5 -255t-373 -89q-217 0 -374.5 88t-240.5 254.5t-83 388.5zM291 711q0 -265 133.5 -420.5t370.5 -155.5q244 0 374.5 150.5t130.5 425.5q0 263 -131.5 413t-371.5 150 q-242 0 -374 -148t-132 -415zM469 1530v20l234 240h204l224 -240v-20h-105l-219 139h-2l-232 -139h-104z" />
<glyph unicode="&#xd5;" horiz-adv-x="1593" d="M97 711q0 338 185 528.5t515 190.5q215 0 373 -85.5t241.5 -248.5t83.5 -385q0 -221 -84.5 -387t-242.5 -255t-373 -89q-217 0 -374.5 88t-240.5 254.5t-83 388.5zM291 711q0 -265 133.5 -420.5t370.5 -155.5q244 0 374.5 150.5t130.5 425.5q0 263 -131.5 413t-371.5 150 q-242 0 -374 -148t-132 -415zM426 1530q11 102 35 154.5t64.5 83t103.5 30.5q44 0 86 -18.5t81 -41t73.5 -41t64.5 -18.5q100 0 117 119h92q-17 -148 -67 -208t-135 -60q-42 0 -84 18.5t-81 41t-74.5 41t-66.5 18.5q-55 0 -82 -31t-36 -88h-91z" />
<glyph unicode="&#xd6;" horiz-adv-x="1593" d="M97 711q0 338 185 528.5t515 190.5q215 0 373 -85.5t241.5 -248.5t83.5 -385q0 -221 -84.5 -387t-242.5 -255t-373 -89q-217 0 -374.5 88t-240.5 254.5t-83 388.5zM291 711q0 -265 133.5 -420.5t370.5 -155.5q244 0 374.5 150.5t130.5 425.5q0 263 -131.5 413t-371.5 150 q-242 0 -374 -148t-132 -415zM516 1530v184h165v-184h-165zM910 1530v184h163v-184h-163z" />
<glyph unicode="&#xd7;" horiz-adv-x="1196" d="M142 330l354 354l-352 352l104 103l350 -353l350 351l105 -105l-350 -348l352 -352l-102 -105l-353 353l-356 -355z" />
<glyph unicode="&#xd8;" horiz-adv-x="1593" d="M71 -53l200 241q-174 192 -174 523q0 338 185 528.5t515 190.5q247 0 414 -110l121 146h192l-201 -242q172 -190 172 -513q0 -221 -84.5 -387t-242.5 -255t-373 -89q-246 0 -414 112l-120 -145h-190zM291 711q0 -229 101 -378l707 853q-124 88 -302 88q-242 0 -374 -148 t-132 -415zM493 226q122 -91 302 -91q244 0 374.5 150.5t130.5 425.5q0 224 -98 368z" />
<glyph unicode="&#xd9;" horiz-adv-x="1479" d="M158 512v897h191v-881q0 -193 98 -293t283 -100q190 0 295.5 103.5t105.5 302.5v868h190v-879q0 -171 -72.5 -295t-205 -189.5t-312.5 -65.5q-173 0 -302 63t-200 183t-71 286zM503 1747v29h207l217 -226v-20h-114z" />
<glyph unicode="&#xda;" horiz-adv-x="1479" d="M158 512v897h191v-881q0 -193 98 -293t283 -100q190 0 295.5 103.5t105.5 302.5v868h190v-879q0 -171 -72.5 -295t-205 -189.5t-312.5 -65.5q-173 0 -302 63t-200 183t-71 286zM565 1530v20l217 226h207v-29l-310 -217h-114z" />
<glyph unicode="&#xdb;" horiz-adv-x="1479" d="M158 512v897h191v-881q0 -193 98 -293t283 -100q190 0 295.5 103.5t105.5 302.5v868h190v-879q0 -171 -72.5 -295t-205 -189.5t-312.5 -65.5q-173 0 -302 63t-200 183t-71 286zM408 1530v20l234 240h204l224 -240v-20h-105l-219 139h-2l-232 -139h-104z" />
<glyph unicode="&#xdc;" horiz-adv-x="1479" d="M158 512v897h191v-881q0 -193 98 -293t283 -100q190 0 295.5 103.5t105.5 302.5v868h190v-879q0 -171 -72.5 -295t-205 -189.5t-312.5 -65.5q-173 0 -302 63t-200 183t-71 286zM459 1530v184h165v-184h-165zM853 1530v184h163v-184h-163z" />
<glyph unicode="&#xdd;" horiz-adv-x="1366" d="M45 1409h210l429 -671l427 671h210l-544 -825v-584h-190v584zM536 1530v20l217 226h207v-29l-310 -217h-114z" />
<glyph unicode="&#xde;" horiz-adv-x="1366" d="M168 0v1409h191v-252h402q239 0 368 -111t129 -311q0 -128 -58 -227.5t-167.5 -155t-259.5 -55.5h-414v-297h-191zM359 438h387q153 0 236.5 77.5t83.5 215.5q0 134 -82 208.5t-246 74.5h-379v-576z" />
<glyph unicode="&#xdf;" horiz-adv-x="1251" d="M142 0v1027q0 227 117.5 342t349.5 115q190 0 302.5 -80.5t112.5 -216.5q0 -143 -113 -246q-79 -72 -96 -96.5t-17 -53.5q0 -38 27.5 -67.5t68.5 -58t89 -60.5q184 -124 184 -310q0 -150 -94 -232.5t-264 -82.5q-171 0 -283 49l-2 164q52 -29 132 -49t149 -20 q92 0 141 43t49 122q0 64 -42.5 115t-139.5 109q-92 54 -137.5 120t-45.5 152q0 61 28.5 111t82.5 95q58 48 84.5 90t26.5 92q0 77 -67 123.5t-176 46.5q-148 0 -217.5 -80t-69.5 -242v-1021h-180z" />
<glyph unicode="&#xe0;" d="M87 302q0 168 110.5 258t356.5 96l243 4v59q0 132 -56 189t-176 57q-121 0 -176 -41t-66 -131l-188 17q46 292 434 292q204 0 307 -93.5t103 -270.5v-466q0 -80 21 -120.5t80 -40.5q26 0 59 7v-112q-68 -16 -139 -16q-100 0 -145.5 52.5t-51.5 164.5h-6 q-69 -124 -160.5 -175.5t-222.5 -51.5q-163 0 -245 86t-82 236zM272 299q0 -88 47.5 -136t135.5 -48q99 0 176 45t121.5 123.5t44.5 161.5v89l-197 -4q-127 -2 -192.5 -26t-100.5 -74t-35 -131zM294 1479v29h207l217 -287v-20h-94z" />
<glyph unicode="&#xe1;" d="M87 302q0 168 110.5 258t356.5 96l243 4v59q0 132 -56 189t-176 57q-121 0 -176 -41t-66 -131l-188 17q46 292 434 292q204 0 307 -93.5t103 -270.5v-466q0 -80 21 -120.5t80 -40.5q26 0 59 7v-112q-68 -16 -139 -16q-100 0 -145.5 52.5t-51.5 164.5h-6 q-69 -124 -160.5 -175.5t-222.5 -51.5q-163 0 -245 86t-82 236zM272 299q0 -88 47.5 -136t135.5 -48q99 0 176 45t121.5 123.5t44.5 161.5v89l-197 -4q-127 -2 -192.5 -26t-100.5 -74t-35 -131zM412 1201v20l217 287h207v-29l-330 -278h-94z" />
<glyph unicode="&#xe2;" d="M87 302q0 168 110.5 258t356.5 96l243 4v59q0 132 -56 189t-176 57q-121 0 -176 -41t-66 -131l-188 17q46 292 434 292q204 0 307 -93.5t103 -270.5v-466q0 -80 21 -120.5t80 -40.5q26 0 59 7v-112q-68 -16 -139 -16q-100 0 -145.5 52.5t-51.5 164.5h-6 q-69 -124 -160.5 -175.5t-222.5 -51.5q-163 0 -245 86t-82 236zM218 1201v20l234 270h204l224 -270v-20h-105l-219 169h-2l-232 -169h-104zM272 299q0 -88 47.5 -136t135.5 -48q99 0 176 45t121.5 123.5t44.5 161.5v89l-197 -4q-127 -2 -192.5 -26t-100.5 -74t-35 -131z" />
<glyph unicode="&#xe3;" d="M87 302q0 168 110.5 258t356.5 96l243 4v59q0 132 -56 189t-176 57q-121 0 -176 -41t-66 -131l-188 17q46 292 434 292q204 0 307 -93.5t103 -270.5v-466q0 -80 21 -120.5t80 -40.5q26 0 59 7v-112q-68 -16 -139 -16q-100 0 -145.5 52.5t-51.5 164.5h-6 q-69 -124 -160.5 -175.5t-222.5 -51.5q-163 0 -245 86t-82 236zM222 1201q11 102 35 154.5t64.5 83t103.5 30.5q44 0 86 -18.5t81 -41t73.5 -41t64.5 -18.5q100 0 117 119h92q-17 -148 -67 -208t-135 -60q-42 0 -84 18.5t-81 41t-74.5 41t-66.5 18.5q-55 0 -82 -31t-36 -88 h-91zM272 299q0 -88 47.5 -136t135.5 -48q99 0 176 45t121.5 123.5t44.5 161.5v89l-197 -4q-127 -2 -192.5 -26t-100.5 -74t-35 -131z" />
<glyph unicode="&#xe4;" d="M87 302q0 168 110.5 258t356.5 96l243 4v59q0 132 -56 189t-176 57q-121 0 -176 -41t-66 -131l-188 17q46 292 434 292q204 0 307 -93.5t103 -270.5v-466q0 -80 21 -120.5t80 -40.5q26 0 59 7v-112q-68 -16 -139 -16q-100 0 -145.5 52.5t-51.5 164.5h-6 q-69 -124 -160.5 -175.5t-222.5 -51.5q-163 0 -245 86t-82 236zM272 299q0 -88 47.5 -136t135.5 -48q99 0 176 45t121.5 123.5t44.5 161.5v89l-197 -4q-127 -2 -192.5 -26t-100.5 -74t-35 -131zM280 1219v184h165v-184h-165zM674 1219v184h163v-184h-163z" />
<glyph unicode="&#xe5;" d="M87 302q0 168 110.5 258t356.5 96l243 4v59q0 132 -56 189t-176 57q-121 0 -176 -41t-66 -131l-188 17q46 292 434 292q204 0 307 -93.5t103 -270.5v-466q0 -80 21 -120.5t80 -40.5q26 0 59 7v-112q-68 -16 -139 -16q-100 0 -145.5 52.5t-51.5 164.5h-6 q-69 -124 -160.5 -175.5t-222.5 -51.5q-163 0 -245 86t-82 236zM272 299q0 -88 47.5 -136t135.5 -48q99 0 176 45t121.5 123.5t44.5 161.5v89l-197 -4q-127 -2 -192.5 -26t-100.5 -74t-35 -131zM315 1410q0 101 71 171t171 70q99 0 170.5 -70.5t71.5 -170.5t-71 -171 t-171 -71t-171 71t-71 171zM422 1410q0 -55 38 -96t97 -41q58 0 96 40.5t38 96.5t-39 95t-95 39q-57 0 -96 -39t-39 -95z" />
<glyph unicode="&#xe6;" horiz-adv-x="1821" d="M66 302q0 174 119 262t361 92l240 4v59q0 135 -55.5 190.5t-176.5 55.5q-126 0 -182.5 -40t-69.5 -132l-188 17q46 292 444 292q250 0 349 -139q118 139 346 139q477 0 477 -575v-24h-762v-17q2 -181 77 -276t215 -95q117 0 187.5 47t95.5 119l158 -45 q-97 -256 -441 -256q-321 0 -423 257q-79 -140 -184 -198.5t-251 -58.5q-167 0 -251.5 86t-84.5 236zM251 299q0 -87 50 -135.5t143 -48.5q102 0 178.5 44.5t120 122t43.5 163.5v89l-195 -4q-133 -3 -203.5 -29.5t-103.5 -77t-33 -124.5zM970 641h574q-15 171 -87 249.5 t-207 78.5q-127 0 -200.5 -85.5t-79.5 -242.5z" />
<glyph unicode="&#xe7;" horiz-adv-x="1024" d="M87 542q0 273 120 416.5t344 143.5q166 0 275.5 -86t137.5 -237l-185 -14q-14 90 -71 143t-162 53q-143 0 -207 -95t-64 -320q0 -216 68 -320t205 -104q96 0 160.5 52t79.5 160l182 -12q-21 -156 -133 -249t-284 -93q-227 0 -346.5 143.5t-119.5 418.5zM387 -332 q49 -6 86 -6q147 0 147 81q0 77 -133 77q-43 0 -57 -2l65 182h107l-39 -100q94 -3 141 -43.5t47 -109.5q0 -181 -274 -181q-57 0 -90 4v98z" />
<glyph unicode="&#xe8;" d="M87 548q0 268 125.5 411t358.5 143q477 0 477 -575v-24h-772q0 -186 77 -287t225 -101q117 0 187.5 47t95.5 119l158 -45q-97 -256 -441 -256q-240 0 -365.5 143t-125.5 425zM278 641h584q-15 171 -87 249.5t-207 78.5q-131 0 -207.5 -87.5t-82.5 -240.5zM327 1479v29 h207l217 -287v-20h-94z" />
<glyph unicode="&#xe9;" d="M87 548q0 268 125.5 411t358.5 143q477 0 477 -575v-24h-772q0 -186 77 -287t225 -101q117 0 187.5 47t95.5 119l158 -45q-97 -256 -441 -256q-240 0 -365.5 143t-125.5 425zM278 641h584q-15 171 -87 249.5t-207 78.5q-131 0 -207.5 -87.5t-82.5 -240.5zM440 1201v20 l217 287h207v-29l-330 -278h-94z" />
<glyph unicode="&#xea;" d="M87 548q0 268 125.5 411t358.5 143q477 0 477 -575v-24h-772q0 -186 77 -287t225 -101q117 0 187.5 47t95.5 119l158 -45q-97 -256 -441 -256q-240 0 -365.5 143t-125.5 425zM245 1201v20l234 270h204l224 -270v-20h-105l-219 169h-2l-232 -169h-104zM278 641h584 q-15 171 -87 249.5t-207 78.5q-131 0 -207.5 -87.5t-82.5 -240.5z" />
<glyph unicode="&#xeb;" d="M87 548q0 268 125.5 411t358.5 143q477 0 477 -575v-24h-772q0 -186 77 -287t225 -101q117 0 187.5 47t95.5 119l158 -45q-97 -256 -441 -256q-240 0 -365.5 143t-125.5 425zM278 641h584q-15 171 -87 249.5t-207 78.5q-131 0 -207.5 -87.5t-82.5 -240.5zM293 1219v184 h165v-184h-165zM687 1219v184h163v-184h-163z" />
<glyph unicode="&#xec;" horiz-adv-x="569" d="M10 1479v29h207l217 -287v-20h-94zM194 0v1082h180v-1082h-180z" />
<glyph unicode="&#xed;" horiz-adv-x="569" d="M135 1201v20l217 287h207v-29l-330 -278h-94zM194 0v1082h180v-1082h-180z" />
<glyph unicode="&#xee;" horiz-adv-x="569" d="M-45 1201v20l234 270h204l224 -270v-20h-105l-219 169h-2l-232 -169h-104zM194 0v1082h180v-1082h-180z" />
<glyph unicode="&#xef;" horiz-adv-x="569" d="M8 1219v184h165v-184h-165zM194 0v1082h180v-1082h-180zM402 1219v184h163v-184h-163z" />
<glyph unicode="&#xf0;" d="M86 481q0 244 124 371t363 127q137 0 231 -59q-109 217 -234 331l-301 -133v114l218 94q-109 87 -242 158h209q80 -36 170 -102l306 132l-1 -112l-211 -92q171 -156 258 -359t87 -435v-6q0 -261 -124.5 -395.5t-372.5 -134.5q-232 0 -356 129t-124 372zM275 481 q0 -190 72 -279t217 -89q161 0 235.5 87.5t74.5 280.5q0 192 -70.5 278.5t-226.5 86.5q-157 0 -229.5 -87t-72.5 -278z" />
<glyph unicode="&#xf1;" d="M140 1082h170q1 -5 2 -27t2.5 -50.5t3.5 -107.5h3q62 112 143.5 158.5t202.5 46.5q178 0 260.5 -88.5t82.5 -292.5v-721h-181v686q0 107 -21 166t-67 85t-135 26q-130 0 -205 -89t-75 -247v-627h-180v851q0 189 -6 231zM222 1201q11 102 35 154.5t64.5 83t103.5 30.5 q44 0 86 -18.5t81 -41t73.5 -41t64.5 -18.5q100 0 117 119h92q-17 -148 -67 -208t-135 -60q-42 0 -84 18.5t-81 41t-74.5 41t-66.5 18.5q-55 0 -82 -31t-36 -88h-91z" />
<glyph unicode="&#xf2;" d="M86 542q0 560 485 560q248 0 365 -136.5t117 -423.5q0 -284 -125 -423t-363 -139q-237 0 -358 144.5t-121 417.5zM275 542q0 -214 69.5 -321.5t218.5 -107.5q162 0 231.5 104t69.5 325q0 224 -66.5 325.5t-223.5 101.5q-158 0 -228.5 -103.5t-70.5 -323.5zM329 1479v29 h207l217 -287v-20h-94z" />
<glyph unicode="&#xf3;" d="M86 542q0 560 485 560q248 0 365 -136.5t117 -423.5q0 -284 -125 -423t-363 -139q-237 0 -358 144.5t-121 417.5zM275 542q0 -214 69.5 -321.5t218.5 -107.5q162 0 231.5 104t69.5 325q0 224 -66.5 325.5t-223.5 101.5q-158 0 -228.5 -103.5t-70.5 -323.5zM431 1201v20 l217 287h207v-29l-330 -278h-94z" />
<glyph unicode="&#xf4;" d="M86 542q0 560 485 560q248 0 365 -136.5t117 -423.5q0 -284 -125 -423t-363 -139q-237 0 -358 144.5t-121 417.5zM240 1201v20l234 270h204l224 -270v-20h-105l-219 169h-2l-232 -169h-104zM275 542q0 -214 69.5 -321.5t218.5 -107.5q162 0 231.5 104t69.5 325 q0 224 -66.5 325.5t-223.5 101.5q-158 0 -228.5 -103.5t-70.5 -323.5z" />
<glyph unicode="&#xf5;" d="M86 542q0 560 485 560q248 0 365 -136.5t117 -423.5q0 -284 -125 -423t-363 -139q-237 0 -358 144.5t-121 417.5zM224 1201q11 102 35 154.5t64.5 83t103.5 30.5q44 0 86 -18.5t81 -41t73.5 -41t64.5 -18.5q100 0 117 119h92q-17 -148 -67 -208t-135 -60q-42 0 -84 18.5 t-81 41t-74.5 41t-66.5 18.5q-55 0 -82 -31t-36 -88h-91zM275 542q0 -214 69.5 -321.5t218.5 -107.5q162 0 231.5 104t69.5 325q0 224 -66.5 325.5t-223.5 101.5q-158 0 -228.5 -103.5t-70.5 -323.5z" />
<glyph unicode="&#xf6;" d="M86 542q0 560 485 560q248 0 365 -136.5t117 -423.5q0 -284 -125 -423t-363 -139q-237 0 -358 144.5t-121 417.5zM275 542q0 -214 69.5 -321.5t218.5 -107.5q162 0 231.5 104t69.5 325q0 224 -66.5 325.5t-223.5 101.5q-158 0 -228.5 -103.5t-70.5 -323.5zM295 1219v184 h165v-184h-165zM689 1219v184h163v-184h-163z" />
<glyph unicode="&#xf7;" horiz-adv-x="1124" d="M65 608v146h995v-146h-995zM478 223v183h168v-183h-168zM478 958v183h168v-183h-168z" />
<glyph unicode="&#xf8;" horiz-adv-x="1251" d="M44 -38l184 214q-83 138 -83 366q0 560 485 560q201 0 316 -91l91 105h167l-173 -201q81 -133 81 -373q0 -284 -125 -423t-363 -139q-195 0 -313 98l-100 -116h-167zM334 542q0 -130 24 -215l482 561q-67 81 -207 81q-158 0 -228.5 -103.5t-70.5 -323.5zM417 201 q68 -88 205 -88q162 0 231.5 104t69.5 325q0 129 -23 221z" />
<glyph unicode="&#xf9;" d="M139 361v721h181v-686q0 -107 21 -166t67 -85t135 -26q130 0 205 89t75 247v627h180v-851q0 -189 6 -231h-170q-1 5 -2 27t-2.5 50.5t-3.5 107.5h-3q-62 -112 -143.5 -158.5t-202.5 -46.5q-178 0 -260.5 88.5t-82.5 292.5zM342 1479v29h207l217 -287v-20h-94z" />
<glyph unicode="&#xfa;" d="M139 361v721h181v-686q0 -107 21 -166t67 -85t135 -26q130 0 205 89t75 247v627h180v-851q0 -189 6 -231h-170q-1 5 -2 27t-2.5 50.5t-3.5 107.5h-3q-62 -112 -143.5 -158.5t-202.5 -46.5q-178 0 -260.5 88.5t-82.5 292.5zM415 1201v20l217 287h207v-29l-330 -278h-94z " />
<glyph unicode="&#xfb;" d="M139 361v721h181v-686q0 -107 21 -166t67 -85t135 -26q130 0 205 89t75 247v627h180v-851q0 -189 6 -231h-170q-1 5 -2 27t-2.5 50.5t-3.5 107.5h-3q-62 -112 -143.5 -158.5t-202.5 -46.5q-178 0 -260.5 88.5t-82.5 292.5zM239 1201v20l234 270h204l224 -270v-20h-105 l-219 169h-2l-232 -169h-104z" />
<glyph unicode="&#xfc;" d="M139 361v721h181v-686q0 -107 21 -166t67 -85t135 -26q130 0 205 89t75 247v627h180v-851q0 -189 6 -231h-170q-1 5 -2 27t-2.5 50.5t-3.5 107.5h-3q-62 -112 -143.5 -158.5t-202.5 -46.5q-178 0 -260.5 88.5t-82.5 292.5zM282 1219v184h165v-184h-165zM676 1219v184h163 v-184h-163z" />
<glyph unicode="&#xfd;" horiz-adv-x="1024" d="M5 1082h192l228 -598q5 -14 12 -33.5t45 -130.5t41 -124l70 197l237 689h190l-416 -1082q-67 -173 -125 -257.5t-128.5 -126t-159.5 -41.5q-74 0 -124 11v135q38 -6 84 -6q168 0 266 247l17 43zM355 1201v20l217 287h207v-29l-330 -278h-94z" />
<glyph unicode="&#xfe;" d="M138 -425v1909h180v-423q0 -65 -4 -153h6q48 100 127 146.5t208 46.5q200 0 299 -134t99 -421q0 -566 -398 -566q-250 0 -336 188h-5q4 -8 4 -170v-423h-180zM318 528q0 -213 68 -314t221 -101q134 0 195.5 98.5t61.5 330.5q0 226 -61 323t-194 97q-107 0 -167.5 -45 t-92 -140.5t-31.5 -248.5z" />
<glyph unicode="&#xff;" horiz-adv-x="1024" d="M5 1082h192l228 -598q5 -14 12 -33.5t45 -130.5t41 -124l70 197l237 689h190l-416 -1082q-67 -173 -125 -257.5t-128.5 -126t-159.5 -41.5q-74 0 -124 11v135q38 -6 84 -6q168 0 266 247l17 43zM232 1219v184h165v-184h-165zM626 1219v184h163v-184h-163z" />
<glyph unicode="&#x2c6;" horiz-adv-x="682" d="M0 1201v20l234 270h204l224 -270v-20h-105l-219 169h-2l-232 -169h-104z" />
<glyph unicode="&#x2dc;" horiz-adv-x="682" d="M-23 1201q11 102 35 154.5t64.5 83t103.5 30.5q44 0 86 -18.5t81 -41t73.5 -41t64.5 -18.5q100 0 117 119h92q-17 -148 -67 -208t-135 -60q-42 0 -84 18.5t-81 41t-74.5 41t-66.5 18.5q-55 0 -82 -31t-36 -88h-91z" />
<glyph unicode="&#x2000;" horiz-adv-x="899" />
<glyph unicode="&#x2001;" horiz-adv-x="1798" />
<glyph unicode="&#x2002;" horiz-adv-x="899" />
<glyph unicode="&#x2003;" horiz-adv-x="1798" />
<glyph unicode="&#x2004;" horiz-adv-x="599" />
<glyph unicode="&#x2005;" horiz-adv-x="449" />
<glyph unicode="&#x2006;" horiz-adv-x="299" />
<glyph unicode="&#x2007;" horiz-adv-x="299" />
<glyph unicode="&#x2008;" horiz-adv-x="224" />
<glyph unicode="&#x2009;" horiz-adv-x="359" />
<glyph unicode="&#x200a;" horiz-adv-x="99" />
<glyph unicode="&#x2010;" horiz-adv-x="682" d="M91 464v160h500v-160h-500z" />
<glyph unicode="&#x2011;" horiz-adv-x="682" d="M91 464v160h500v-160h-500z" />
<glyph unicode="&#x2012;" horiz-adv-x="682" d="M91 464v160h500v-160h-500z" />
<glyph unicode="&#x2013;" d="M0 451v137h1138v-137h-1138z" />
<glyph unicode="&#x2014;" horiz-adv-x="2048" d="M0 451v137h2048v-137h-2048z" />
<glyph unicode="&#x2018;" horiz-adv-x="455" d="M127 952v146q0 97 18.5 170.5t61.5 140.5h121q-95 -137 -95 -262h89v-195h-195z" />
<glyph unicode="&#x2019;" horiz-adv-x="455" d="M127 952q94 136 94 260h-88v197h195v-145q0 -105 -19 -176.5t-59 -135.5h-123z" />
<glyph unicode="&#x201a;" horiz-adv-x="455" d="M127 -262q94 136 94 262h-88v195h195v-144q0 -106 -19 -177t-59 -136h-123z" />
<glyph unicode="&#x201c;" horiz-adv-x="682" d="M75 952v146q0 97 18.5 170.5t61.5 140.5h121q-95 -137 -95 -262h89v-195h-195zM407 952v146q0 95 18 169.5t60 141.5h122q-94 -136 -94 -262h88v-195h-194z" />
<glyph unicode="&#x201d;" horiz-adv-x="682" d="M75 952q94 136 94 262h-88v195h195v-145q0 -105 -19 -176.5t-59 -135.5h-123zM407 952q94 136 94 262h-88v195h194v-145q0 -93 -17 -166t-62 -146h-121z" />
<glyph unicode="&#x201e;" horiz-adv-x="682" d="M75 -262q94 136 94 262h-88v195h195v-144q0 -106 -19 -177t-59 -136h-123zM407 -262q94 136 94 262h-88v195h194v-144q0 -95 -17.5 -168.5t-61.5 -144.5h-121z" />
<glyph unicode="&#x2022;" horiz-adv-x="717" d="M81 682q0 115 81 194.5t193 79.5q116 0 198.5 -80.5t82.5 -193.5t-81.5 -197t-199.5 -84q-113 0 -193.5 83t-80.5 198z" />
<glyph unicode="&#x202f;" horiz-adv-x="359" />
<glyph unicode="&#x2039;" horiz-adv-x="682" d="M88 506v63l336 371h167v-31l-335 -372l337 -367v-29h-169z" />
<glyph unicode="&#x203a;" horiz-adv-x="682" d="M89 141v29l338 367l-336 372v31h166l337 -371v-63l-337 -365h-168z" />
<glyph unicode="&#x205f;" horiz-adv-x="449" />
<glyph unicode="&#x25fc;" horiz-adv-x="1080" d="M0 0v1080h1080v-1080h-1080z" />
<hkern u1="&#x20;" u2="Y" k="37" />
<hkern u1="&#x20;" u2="T" k="37" />
<hkern u1="&#x20;" u2="A" k="113" />
<hkern u1="&#x31;" u2="&#x31;" k="152" />
<hkern u1="A" u2="&#x2019;" k="152" />
<hkern u1="A" u2="y" k="37" />
<hkern u1="A" u2="w" k="37" />
<hkern u1="A" u2="v" k="37" />
<hkern u1="A" u2="Y" k="152" />
<hkern u1="A" u2="W" k="76" />
<hkern u1="A" u2="V" k="152" />
<hkern u1="A" u2="T" k="152" />
<hkern u1="A" u2="&#x20;" k="113" />
<hkern u1="F" u2="A" k="113" />
<hkern u1="F" u2="&#x2e;" k="227" />
<hkern u1="F" u2="&#x2c;" k="227" />
<hkern u1="L" u2="&#x2019;" k="113" />
<hkern u1="L" u2="y" k="76" />
<hkern u1="L" u2="Y" k="152" />
<hkern u1="L" u2="W" k="152" />
<hkern u1="L" u2="V" k="152" />
<hkern u1="L" u2="T" k="152" />
<hkern u1="L" u2="&#x20;" k="76" />
<hkern u1="P" u2="A" k="152" />
<hkern u1="P" u2="&#x2e;" k="264" />
<hkern u1="P" u2="&#x2c;" k="264" />
<hkern u1="P" u2="&#x20;" k="37" />
<hkern u1="R" u2="Y" k="37" />
<hkern u1="R" u2="W" k="37" />
<hkern u1="R" u2="V" k="37" />
<hkern u1="R" u2="T" k="37" />
<hkern u1="T" u2="y" k="113" />
<hkern u1="T" u2="w" k="113" />
<hkern u1="T" u2="u" k="76" />
<hkern u1="T" u2="s" k="227" />
<hkern u1="T" u2="r" k="76" />
<hkern u1="T" u2="o" k="227" />
<hkern u1="T" u2="i" k="76" />
<hkern u1="T" u2="e" k="227" />
<hkern u1="T" u2="c" k="227" />
<hkern u1="T" u2="a" k="227" />
<hkern u1="T" u2="O" k="37" />
<hkern u1="T" u2="A" k="152" />
<hkern u1="T" u2="&#x3a;" k="227" />
<hkern u1="T" u2="&#x2e;" k="227" />
<hkern u1="T" u2="&#x2d;" k="113" />
<hkern u1="T" u2="&#x2c;" k="227" />
<hkern u1="T" u2="&#x20;" k="37" />
<hkern u1="V" u2="y" k="76" />
<hkern u1="V" u2="u" k="76" />
<hkern u1="V" u2="r" k="76" />
<hkern u1="V" u2="o" k="113" />
<hkern u1="V" u2="i" k="37" />
<hkern u1="V" u2="e" k="113" />
<hkern u1="V" u2="a" k="152" />
<hkern u1="V" u2="A" k="152" />
<hkern u1="V" u2="&#x3a;" k="76" />
<hkern u1="V" u2="&#x2e;" k="188" />
<hkern u1="V" u2="&#x2d;" k="113" />
<hkern u1="V" u2="&#x2c;" k="188" />
<hkern u1="W" u2="y" k="18" />
<hkern u1="W" u2="u" k="37" />
<hkern u1="W" u2="r" k="37" />
<hkern u1="W" u2="o" k="37" />
<hkern u1="W" u2="e" k="37" />
<hkern u1="W" u2="a" k="76" />
<hkern u1="W" u2="A" k="76" />
<hkern u1="W" u2="&#x3a;" k="37" />
<hkern u1="W" u2="&#x2e;" k="113" />
<hkern u1="W" u2="&#x2d;" k="37" />
<hkern u1="W" u2="&#x2c;" k="113" />
<hkern u1="Y" u2="v" k="113" />
<hkern u1="Y" u2="u" k="113" />
<hkern u1="Y" u2="q" k="188" />
<hkern u1="Y" u2="p" k="152" />
<hkern u1="Y" u2="o" k="188" />
<hkern u1="Y" u2="i" k="76" />
<hkern u1="Y" u2="e" k="188" />
<hkern u1="Y" u2="a" k="152" />
<hkern u1="Y" u2="A" k="152" />
<hkern u1="Y" u2="&#x3a;" k="113" />
<hkern u1="Y" u2="&#x2e;" k="264" />
<hkern u1="Y" u2="&#x2d;" k="188" />
<hkern u1="Y" u2="&#x2c;" k="264" />
<hkern u1="Y" u2="&#x20;" k="37" />
<hkern u1="f" u2="&#x2019;" k="-37" />
<hkern u1="f" u2="f" k="37" />
<hkern u1="r" u2="&#x2019;" k="-76" />
<hkern u1="r" u2="&#x2e;" k="113" />
<hkern u1="r" u2="&#x2c;" k="113" />
<hkern u1="v" u2="&#x2e;" k="152" />
<hkern u1="v" u2="&#x2c;" k="152" />
<hkern u1="w" u2="&#x2e;" k="113" />
<hkern u1="w" u2="&#x2c;" k="113" />
<hkern u1="y" u2="&#x2e;" k="152" />
<hkern u1="y" u2="&#x2c;" k="152" />
<hkern u1="&#x2018;" u2="&#x2018;" k="37" />
<hkern u1="&#x2019;" u2="&#x2019;" k="37" />
<hkern u1="&#x2019;" u2="s" k="37" />
<hkern u1="&#x2019;" u2="&#x20;" k="76" />
</font>
</defs></svg> 